…
<img src="p8105_hw5_ryw2109_files/figure-gfm/q2_c-1.png" width="90%" />

The sample average 𝜇 across tests for which the null is rejected is not
approximately equal to the true value of 𝜇. This may be due to sample
variability and Type I error.

The data provided has a total of 52179 rows and 12 columns. The dataset
consists of the following data information:

uid, reported_date, victim_last, victim_first, victim_race, victim_age,
victim_sex, city, state, lat, lon, disposition

    ## # A tibble: 51 × 4
    ##    city_state      estimate conf.low conf.high
    ##    <chr>              <dbl>    <dbl>     <dbl>
    ##  1 Albuquerque, NM    0.386    0.337     0.438
    ##  2 Atlanta, GA        0.383    0.353     0.415
    ##  3 Baltimore, MD      0.646    0.628     0.663
    ##  4 Baton Rouge, LA    0.462    0.414     0.511
    ##  5 Birmingham, AL     0.434    0.399     0.469
    ##  6 Boston, MA         0.505    0.465     0.545
    ##  7 Buffalo, NY        0.612    0.569     0.654
    ##  8 Charlotte, NC      0.300    0.266     0.336
    ##  9 Chicago, IL        0.736    0.724     0.747
    ## 10 Cincinnati, OH     0.445    0.408     0.483
    ## # ℹ 41 more rows
…
